-------------------------------------------------------------------------------
Test set: de.andrena.ausbildung.einwohnerverwaltung.persistance.PersistenceFacadeFileTest
-------------------------------------------------------------------------------
Tests run: 1, Failures: 0, Errors: 0, Skipped: 0, Time elapsed: 0.067 sec
